\relax 
\providecommand\hyper@newdestlabel[2]{}
\catcode `"\active 
\providecommand\HyperFirstAtBeginDocument{\AtBeginDocument}
\HyperFirstAtBeginDocument{\ifx\hyper@anchor\@undefined
\global\let\oldcontentsline\contentsline
\gdef\contentsline#1#2#3#4{\oldcontentsline{#1}{#2}{#3}}
\global\let\oldnewlabel\newlabel
\gdef\newlabel#1#2{\newlabelxx{#1}#2}
\gdef\newlabelxx#1#2#3#4#5#6{\oldnewlabel{#1}{{#2}{#3}}}
\AtEndDocument{\ifx\hyper@anchor\@undefined
\let\contentsline\oldcontentsline
\let\newlabel\oldnewlabel
\fi}
\fi}
\global\let\hyper@last\relax 
\gdef\HyperFirstAtBeginDocument#1{#1}
\providecommand\HyField@AuxAddToFields[1]{}
\providecommand\HyField@AuxAddToCoFields[2]{}
\select@language{ngerman}
\@writefile{toc}{\select@language{ngerman}}
\@writefile{lof}{\select@language{ngerman}}
\@writefile{lot}{\select@language{ngerman}}
\select@language{english}
\@writefile{toc}{\select@language{english}}
\@writefile{lof}{\select@language{english}}
\@writefile{lot}{\select@language{english}}
\@writefile{toc}{\contentsline {sheet}{\numberline {Sheet~3}Best Response Function\\Zero-Sum Games}{3~--~1}{sheet.3}}
\@writefile{toc}{\contentsline {exercise}{\numberline {Exercise~3.1}Best response function}{3~--~1}{exercise.3.1}}
\newlabel{eq:maximum1}{{1}{3~--~1}{\useexercisetopic }{equation.0.0.1}{}}
\newlabel{eq:maximum2}{{2}{3~--~1}{\useexercisetopic }{equation.0.0.2}{}}
\@writefile{toc}{\contentsline {exercise}{\numberline {Exercise~3.2}Minimax strategy profiles}{3~--~2}{exercise.3.2}}
\newlabel{eq:aprimene}{{1}{3~--~2}{(a)}{equation.0.0.1}{}}
\newlabel{eq:inequality}{{2}{3~--~2}{(a)}{equation.0.0.2}{}}
\newlabel{eq:finalpart}{{3}{3~--~2}{(a)}{equation.0.0.3}{}}
\@writefile{toc}{\contentsline {exercise}{\numberline {Exercise~3.3}Nash Equilibria in zero-sum games}{3~--~3}{exercise.3.3}}
