\relax 
\providecommand\hyper@newdestlabel[2]{}
\catcode `"\active 
\providecommand\HyperFirstAtBeginDocument{\AtBeginDocument}
\HyperFirstAtBeginDocument{\ifx\hyper@anchor\@undefined
\global\let\oldcontentsline\contentsline
\gdef\contentsline#1#2#3#4{\oldcontentsline{#1}{#2}{#3}}
\global\let\oldnewlabel\newlabel
\gdef\newlabel#1#2{\newlabelxx{#1}#2}
\gdef\newlabelxx#1#2#3#4#5#6{\oldnewlabel{#1}{{#2}{#3}}}
\AtEndDocument{\ifx\hyper@anchor\@undefined
\let\contentsline\oldcontentsline
\let\newlabel\oldnewlabel
\fi}
\fi}
\global\let\hyper@last\relax 
\gdef\HyperFirstAtBeginDocument#1{#1}
\providecommand\HyField@AuxAddToFields[1]{}
\providecommand\HyField@AuxAddToCoFields[2]{}
\select@language{ngerman}
\@writefile{toc}{\select@language{ngerman}}
\@writefile{lof}{\select@language{ngerman}}
\@writefile{lot}{\select@language{ngerman}}
\select@language{english}
\@writefile{toc}{\select@language{english}}
\@writefile{lof}{\select@language{english}}
\@writefile{lot}{\select@language{english}}
\@writefile{toc}{\contentsline {sheet}{\numberline {Sheet~9}Pirates and Solver Tournament}{9~--~1}{sheet.9}}
\@writefile{toc}{\contentsline {exercise}{\numberline {Exercise~9.1}Pirates}{9~--~1}{exercise.9.1}}
\@writefile{toc}{\contentsline {exercise}{\numberline {Exercise~9.2}Solver Tournament}{9~--~1}{exercise.9.2}}
\newlabel{ourGame}{{9.2}{9~--~1}{\useexercisetopic }{exercise.9.2}{}}
\@writefile{lof}{\contentsline {figure}{\numberline {1}{\ignorespaces Payoff matrix of the prisoners dilemma.}}{9~--~1}{figure.0.1}}
