\relax 
\providecommand\hyper@newdestlabel[2]{}
\catcode `"\active 
\providecommand\HyperFirstAtBeginDocument{\AtBeginDocument}
\HyperFirstAtBeginDocument{\ifx\hyper@anchor\@undefined
\global\let\oldcontentsline\contentsline
\gdef\contentsline#1#2#3#4{\oldcontentsline{#1}{#2}{#3}}
\global\let\oldnewlabel\newlabel
\gdef\newlabel#1#2{\newlabelxx{#1}#2}
\gdef\newlabelxx#1#2#3#4#5#6{\oldnewlabel{#1}{{#2}{#3}}}
\AtEndDocument{\ifx\hyper@anchor\@undefined
\let\contentsline\oldcontentsline
\let\newlabel\oldnewlabel
\fi}
\fi}
\global\let\hyper@last\relax 
\gdef\HyperFirstAtBeginDocument#1{#1}
\providecommand\HyField@AuxAddToFields[1]{}
\providecommand\HyField@AuxAddToCoFields[2]{}
\select@language{ngerman}
\@writefile{toc}{\select@language{ngerman}}
\@writefile{lof}{\select@language{ngerman}}
\@writefile{lot}{\select@language{ngerman}}
\select@language{english}
\@writefile{toc}{\select@language{english}}
\@writefile{lof}{\select@language{english}}
\@writefile{lot}{\select@language{english}}
\@writefile{toc}{\contentsline {sheet}{\numberline {Sheet~8}Extensive Games: Uniqueness of SPE}{8~--~1}{sheet.8}}
\@writefile{toc}{\contentsline {exercise}{\numberline {Exercise~8.1}Uniqueness of SPE}{8~--~1}{exercise.8.1}}
\newlabel{eq:equalitys}{{1}{8~--~1}{a)}{equation.0.0.1}{}}
\newlabel{eq:equalityr}{{2}{8~--~1}{a)}{equation.0.0.2}{}}
\newlabel{eq:maximin1}{{3}{8~--~1}{a)}{equation.0.0.3}{}}
\@writefile{lof}{\contentsline {figure}{\numberline {1}{\ignorespaces Game tree of game $\Gamma $.}}{8~--~1}{figure.0.1}}
\@writefile{toc}{\contentsline {exercise}{\numberline {Exercise~8.2}Decision Order}{8~--~2}{exercise.8.2}}
\@writefile{lof}{\contentsline {figure}{\numberline {2}{\ignorespaces Payoff matrix of strategic game $G$.}}{8~--~5}{figure.0.2}}
\@writefile{lof}{\contentsline {figure}{\numberline {3}{\ignorespaces Game Trees of extensive Games $\Gamma _2$ (above) and $\Gamma _1$ (below).}}{8~--~5}{figure.0.3}}
