\relax 
\providecommand\hyper@newdestlabel[2]{}
\catcode `"\active 
\providecommand\HyperFirstAtBeginDocument{\AtBeginDocument}
\HyperFirstAtBeginDocument{\ifx\hyper@anchor\@undefined
\global\let\oldcontentsline\contentsline
\gdef\contentsline#1#2#3#4{\oldcontentsline{#1}{#2}{#3}}
\global\let\oldnewlabel\newlabel
\gdef\newlabel#1#2{\newlabelxx{#1}#2}
\gdef\newlabelxx#1#2#3#4#5#6{\oldnewlabel{#1}{{#2}{#3}}}
\AtEndDocument{\ifx\hyper@anchor\@undefined
\let\contentsline\oldcontentsline
\let\newlabel\oldnewlabel
\fi}
\fi}
\global\let\hyper@last\relax 
\gdef\HyperFirstAtBeginDocument#1{#1}
\providecommand\HyField@AuxAddToFields[1]{}
\providecommand\HyField@AuxAddToCoFields[2]{}
\select@language{ngerman}
\@writefile{toc}{\select@language{ngerman}}
\@writefile{lof}{\select@language{ngerman}}
\@writefile{lot}{\select@language{ngerman}}
\select@language{english}
\@writefile{toc}{\select@language{english}}
\@writefile{lof}{\select@language{english}}
\@writefile{lot}{\select@language{english}}
\@writefile{toc}{\contentsline {sheet}{\numberline {Sheet~7}Extensive Games: Induced Strategic Game}{7~--~1}{sheet.7}}
\@writefile{toc}{\contentsline {exercise}{\numberline {Exercise~7.1}Induced Strategic Game}{7~--~1}{exercise.7.1}}
\@writefile{lof}{\contentsline {figure}{\numberline {1}{\ignorespaces Payoffs of not subgame perfect NE in bold. SPE's in red.}}{7~--~1}{figure.0.1}}
\@writefile{toc}{\contentsline {exercise}{\numberline {Exercise~7.2}Modeling extensive game}{7~--~1}{exercise.7.2}}
\@writefile{lof}{\contentsline {figure}{\numberline {2}{\ignorespaces Game tree for extensive game $\Gamma $.}}{7~--~2}{figure.0.2}}
